{
  "layout": {
      "title": false,
      "customJS" : ["jquery.peity.js"],
      "widgets" : [
          {"row" : 1, "col" : 1, "width" : 3, "height" : 2, "widget" : "executionProgress",   "job" : "executionProgressJob",  "config": "executionProgress"},
          {"row" : 1, "col" : 2, "width" : 3, "height" : 2, "widget" : "executionMetrics",   "job" : "executionMetricsJob",  "config": "executionMetrics"},
          {"row" : 2, "col" : 1, "width" : 3, "height" : 2, "widget" : "executionActivity",   "job" : "executionActivityJob",  "config": "executionActivity"},
          {"row" : 2, "col" : 2, "width" : 3, "height" : 2, "widget" : "executionTrend",   "job" : "executionTrendJob",  "config": "executionTrend"}
      ]
  },

    "config": {
        "executionProgress":{
            "interval": 60000,
            "widgetTitle": "Zephyr Test Execution Progress"
        },
        "executionMetrics": {
            "interval": 60000,
            "widgetTitle": "Zephyr Test Execution Chart",
            "numberSeries": 5,
            "chartType": "bar",
            "items": 40,
            "xAxis": false,
            "yAxis": false
        },
        "executionActivity": {
            "interval": 60000,
            "widgetTitle": "Execution Activity",
            "items": 40,
            "project": "ironclad"
        },
        "executionTrend": {
            "interval": 60000,
            "widgetTitle": "Execution Trend By Project",
            "items": 40,
            "chartType": "line",
            "jira_server": "http://localhost:2990/jira",
            "projectId": 10201,
            "username": "vm_admin",
            "password": "password",
            "xAxis": true,
            "yAxis": true,
            "cumulative":false

        }
    }
}